JC_Data_plot
…
Another chunk

## # A tibble: 39 x 8
##    ANSP_NAME      FIN_CEF UC_ER_DLY UC_APT_DLY   CEF CEF1_4 CEF3_4 ANSP2        
##    <chr>            <dbl>     <dbl>      <dbl> <dbl>  <dbl>  <dbl> <fct>        
##  1 skeyes            856.   279.        54.8   1190.   340.   526. skeyes       
##  2 LVNL              681.    13.3      347.    1042.   340.   526. LVNL         
##  3 Austro Control    525.   364.        32.0    920.   340.   526. Austro Contr~
##  4 HungaroControl    336.   535.         0.592  871.   340.   526. HungaroContr~
##  5 DFS               527.   247.        20.9    795.   340.   526. DFS          
##  6 Skyguide          675.    38.4       79.2    793.   340.   526. Skyguide     
##  7 UkSATSE           679.     0          1.76   681.   340.   526. UkSATSE      
##  8 DSNA              448.   156.        14.3    618.   340.   526. DSNA         
##  9 LPS               530.    34.6        0      564.   340.   526. LPS          
## 10 Albcontrol        532.     0.128      0      533.   340.   526. Albcontrol   
## # ... with 29 more rows
…
